…
``` r
library(readxl)
(renta <- read_xlsx(
  "data.xlsx",
  sheet = "VaR",
  skip = 4,
  col_names = c("Date", "France", "BRIC", "US_Corporate_Bonds")
))
```

    ## # A tibble: 4,684 x 4
    ##    Date                   France     BRIC US_Corporate_Bonds
    ##    <dttm>                  <dbl>    <dbl>              <dbl>
    ##  1 2003-10-01 00:00:00  0.0238    0.0164            0.000210
    ##  2 2003-10-02 00:00:00 -0.00182   0.0168           -0.00342 
    ##  3 2003-10-03 00:00:00  0.0257    0.0159           -0.0102  
    ##  4 2003-10-06 00:00:00 -0.000820  0.0150            0.00352 
    ##  5 2003-10-07 00:00:00  0.000733  0.0135           -0.00471 
    ##  6 2003-10-08 00:00:00  0.00262   0.0197            0.000419
    ##  7 2003-10-09 00:00:00  0.0161    0.00885          -0.00213 
    ##  8 2003-10-10 00:00:00  0.000565 -0.00139           0.00297 
    ##  9 2003-10-13 00:00:00  0.00356   0.0111            0.000496
    ## 10 2003-10-14 00:00:00 -0.00218  -0.00183          -0.00471 
    ## # ... with 4,674 more rows
…
``` r
(renta <- renta %>% drop_na())
```

    ## # A tibble: 4,534 x 3
    ##       France     BRIC US_Corporate_Bonds
    ##        <dbl>    <dbl>              <dbl>
    ##  1  0.0238    0.0164            0.000210
    ##  2 -0.00182   0.0168           -0.00342 
    ##  3  0.0257    0.0159           -0.0102  
    ##  4 -0.000820  0.0150            0.00352 
    ##  5  0.000733  0.0135           -0.00471 
    ##  6  0.00262   0.0197            0.000419
    ##  7  0.0161    0.00885          -0.00213 
    ##  8  0.000565 -0.00139           0.00297 
    ##  9  0.00356   0.0111            0.000496
    ## 10 -0.00218  -0.00183          -0.00471 
    ## # ... with 4,524 more rows
…
